Visualizing Puerto Rican Homelessness in Western New York
…
#set the coordinates for the centroid points
coordinates(count_in_zips_points_US)<-c("Longitude","Latitude")

#convert to sf
st_as_sf(count_in_zips_points_US)

## Simple feature collection with 416 features and 4 fields
## geometry type:  POINT
## dimension:      XY
## bbox:           xmin: -158.0354 ymin: 18.09281 xmax: -65.65987 ymax: 48.09714
## epsg (SRID):    NA
## proj4string:    NA
## # A tibble: 416 x 5
##      Zip     n        City State          geometry
##    <chr> <int>       <chr> <chr>  <simple_feature>
##  1 00610     2      Anasco    PR <POINT (-67.1...>
##  2 00676     2        Moca    PR <POINT (-67.0...>
##  3 00683     1  San German    PR <POINT (-67.0...>
##  4 00720     5    Orocovis    PR <POINT (-66.4...>
##  5 00735     3       Ceiba    PR <POINT (-65.6...>
##  6 00771     4 Las Piedras    PR <POINT (-65.8...>
##  7 00772     4       Loiza    PR <POINT (-65.8...>
##  8 00791     6     Humacao    PR <POINT (-65.8...>
##  9 00907     5    San Juan    PR <POINT (-66.0...>
## 10 00924     7    San Juan    PR <POINT (-66.0...>
## # ... with 406 more rows
…
